<svg width="24" height="24" viewBox="0 0 24 24" fill="none" xmlns="http://www.w3.org/2000/svg">
  <rect width="23.9999" height="23.9999" rx="4" fill="#999999"/>
  <path fill-rule="evenodd" clip-rule="evenodd" d="M4 14C4 12.8954 4.89543 12 6 12H18C19.1046 12 20 12.8954 20 14V23.9998H4V14Z" fill="white" fill-opacity="0.74"/>
  <path fill-rule="evenodd" clip-rule="evenodd" d="M9 6C9 5.44772 8.55228 5 8 5H5C4.44772 5 4 5.44772 4 6V8C4 8.55228 4.44772 9 5 9H8C8.55228 9 9 8.55228 9 8V6Z" fill="white" fill-opacity="0.74"/>
  <path fill-rule="evenodd" clip-rule="evenodd" d="M14.5 6C14.5 5.44772 14.0523 5 13.5 5H10.5C9.94772 5 9.5 5.44772 9.5 6V8C9.5 8.55228 9.94772 9 10.5 9H13.5C14.0523 9 14.5 8.55228 14.5 8V6Z" fill="white" fill-opacity="0.74"/>
  <path fill-rule="evenodd" clip-rule="evenodd" d="M20 6C20 5.44772 19.5523 5 19 5H16C15.4477 5 15 5.44772 15 6V8C15 8.55228 15.4477 9 16 9H19C19.5523 9 20 8.55228 20 8V6Z" fill="white" fill-opacity="0.74"/>
</svg>
