<svg width="24" height="24" viewBox="0 0 24 24" fill="none" xmlns="http://www.w3.org/2000/svg">
  <rect width="23.9999" height="23.9999" rx="4" fill="#999999"/>
  <path d="M6.60156 18L8.39062 17.5156L7.03906 16.1016L6.60156 18ZM7.75 14.5234L9.94531 16.8203L15.7656 10.7109L13.5781 8.41406L7.75 14.5234ZM16.7891 7.32031C16.638 7.15365 16.4453 7.02083 16.2109 6.92188C15.7474 6.71875 15.3151 6.78385 14.9141 7.11719L14.1172 7.89062L16.2734 10.1562L17.0156 9.30469C17.1406 9.14323 17.224 8.9401 17.2656 8.69531C17.3542 8.20573 17.1953 7.7474 16.7891 7.32031Z" fill="white"/>
</svg>